33.6,0.627
26.6,0.351
23.3,0.672
28.1,0.167
43.1,2.288
25.6,0.201
31,0.248
35.3,0.134
30.5,0.158
0,0.232
37.6,0.191
38,0.537
27.1,1.441
30.1,0.398
25.8,0.587
30,0.484
45.8,0.551
29.6,0.254
43.3,0.183
34.6,0.529
39.3,0.704
35.4,0.388
39.8,0.451
29,0.263
36.6,0.254
31.1,0.205
39.4,0.257
23.2,0.487
22.2,0.245
34.1,0.337
36,0.546
31.6,0.851
24.8,0.267
19.9,0.188
27.6,0.512
24,0.966
33.2,0.42
32.9,0.665
38.2,0.503
37.1,1.39
34,0.271
40.2,0.696
22.7,0.235
45.4,0.721
27.4,0.294
42,1.893
29.7,0.564
28,0.586
39.1,0.344
0,0.305
19.4,0.491
24.2,0.526
24.4,0.342
33.7,0.467
34.7,0.718
23,0.248
37.7,0.254
46.8,0.962
40.5,1.781
41.5,0.173
0,0.304
32.9,0.27
25,0.587
25.4,0.699
32.8,0.258
29,0.203
32.5,0.855
42.7,0.845
19.6,0.334
28.9,0.189
32.9,0.867
28.6,0.411
43.4,0.583
35.1,0.231
32,0.396
24.7,0.14
32.6,0.391
37.7,0.37
43.2,0.27
25,0.307
22.4,0.14
0,0.102
29.3,0.767
24.6,0.237
48.8,0.227
32.4,0.698
36.6,0.178
38.5,0.324
37.1,0.153
26.5,0.165
19.1,0.258
32,0.443
46.7,0.261
23.8,0.277
24.7,0.761
33.9,0.255
31.6,0.13
20.4,0.323
28.7,0.356
49.7,0.325
39,1.222
26.1,0.179
22.5,0.262
26.6,0.283
39.6,0.93
28.7,0.801
22.4,0.207
29.5,0.287
34.3,0.336
37.4,0.247
33.3,0.199
34,0.543
31.2,0.192
34,0.391
30.5,0.588
31.2,0.539
34,0.22
33.7,0.654
28.2,0.443
23.2,0.223
53.2,0.759
34.2,0.26
33.6,0.404
26.8,0.186
33.3,0.278
55,0.496
42.9,0.452
33.3,0.261
34.5,0.403
27.9,0.741
29.7,0.361
33.3,1.114
34.5,0.356
38.3,0.457
21.1,0.647
33.8,0.088
30.8,0.597
28.7,0.532
31.2,0.703
36.9,0.159
21.1,0.268
39.5,0.286
32.5,0.318
32.4,0.272
32.8,0.237
0,0.572
32.8,0.096
30.5,1.4
33.7,0.218
27.3,0.085
37.4,0.399
21.9,0.432
34.3,1.189
40.6,0.687
47.9,0.137
50,0.337
24.6,0.637
25.2,0.833
29,0.229
40.9,0.817
29.7,0.294
37.2,0.204
44.2,0.167
29.7,0.368
31.6,0.743
29.9,0.722
32.5,0.256
29.6,0.709
31.9,0.471
28.4,0.495
30.8,0.18
35.4,0.542
28.9,0.773
43.5,0.678
29.7,0.37
32.7,0.719
31.2,0.382
67.1,0.319
45,0.19
39.1,0.956
23.2,0.084
34.9,0.725
27.7,0.299
26.8,0.268
27.6,0.244
35.9,0.745
30.1,0.615
32,1.321
27.9,0.64
31.6,0.361
22.6,0.142
33.1,0.374
30.4,0.383
52.3,0.578
24.4,0.136
39.4,0.395
24.3,0.187
22.9,0.678
34.8,0.905
30.9,0.15
31,0.874
40.1,0.236
27.3,0.787
20.4,0.235
37.7,0.324
23.9,0.407
37.5,0.605
37.7,0.151
33.2,0.289
35.5,0.355
27.7,0.29
42.8,0.375
34.2,0.164
42.6,0.431
34.2,0.26
41.8,0.742
35.8,0.514
30,0.464
29,1.224
37.8,0.261
34.6,1.072
31.6,0.805
25.2,0.209
28.8,0.687
23.6,0.666
34.6,0.101
35.7,0.198
37.2,0.652
36.7,2.329
45.2,0.089
44,0.645
46.2,0.238
25.4,0.583
35,0.394
29.7,0.293
43.6,0.479
35.9,0.586
44.1,0.686
30.8,0.831
18.4,0.582
29.2,0.192
33.1,0.446
25.6,0.402
27.1,1.318
38.2,0.329
30,1.213
31.2,0.258
52.3,0.427
35.4,0.282
30.1,0.143
31.2,0.38
28,0.284
24.4,0.249
35.8,0.238
27.6,0.926
33.6,0.543
30.1,0.557
28.7,0.092
25.9,0.655
33.3,1.353
30.9,0.299
30,0.761
32.1,0.612
32.4,0.2
32,0.226
33.6,0.997
36.3,0.933
40,1.101
25.1,0.078
27.5,0.24
45.6,1.136
25.2,0.128
23,0.254
33.2,0.422
34.2,0.251
40.5,0.677
26.5,0.296
27.8,0.454
24.9,0.744
25.3,0.881
37.9,0.334
35.9,0.28
32.4,0.262
30.4,0.165
27,0.259
26,0.647
38.7,0.619
45.6,0.808
20.8,0.34
36.1,0.263
36.9,0.434
36.6,0.757
43.3,1.224
40.5,0.613
21.9,0.254
35.5,0.692
28,0.337
30.7,0.52
36.6,0.412
23.6,0.84
32.3,0.839
31.6,0.422
35.8,0.156
52.9,0.209
21,0.207
39.7,0.215
25.5,0.326
24.8,0.143
30.5,1.391
32.9,0.875
26.2,0.313
39.4,0.605
26.6,0.433
29.5,0.626
35.9,1.127
34.1,0.315
19.3,0.284
30.5,0.345
38.1,0.15
23.5,0.129
27.5,0.527
31.6,0.197
27.4,0.254
26.8,0.731
35.7,0.148
25.6,0.123
35.1,0.692
35.1,0.2
45.5,0.127
30.8,0.122
23.1,1.476
32.7,0.166
43.3,0.282
23.6,0.137
23.9,0.26
47.9,0.259
33.8,0.932
31.2,0.343
34.2,0.893
39.9,0.331
25.9,0.472
25.9,0.673
32,0.389
34.7,0.29
36.8,0.485
38.5,0.349
28.7,0.654
23.5,0.187
21.8,0.279
41,0.346
42.2,0.237
31.2,0.252
34.4,0.243
27.2,0.58
42.7,0.559
30.4,0.302
33.3,0.962
39.9,0.569
35.3,0.378
36.5,0.875
31.2,0.583
29.8,0.207
39.2,0.305
38.5,0.52
34.9,0.385
34,0.499
27.6,0.368
21,0.252
27.5,0.306
32.8,0.234
38.4,2.137
0,1.731
35.8,0.545
34.9,0.225
36.2,0.816
39.2,0.528
25.2,0.299
37.2,0.509
48.3,0.238
43.4,1.021
30.8,0.821
20,0.236
25.4,0.947
25.1,1.268
24.3,0.221
22.3,0.205
32.3,0.66
43.3,0.239
32,0.452
31.6,0.949
32,0.444
45.7,0.34
23.7,0.389
22.1,0.463
32.9,0.803
27.7,1.6
24.7,0.944
34.3,0.196
21.1,0.389
34.9,0.241
32,0.161
24.2,0.151
35,0.286
31.6,0.28
32.9,0.135
42.1,0.52
28.9,0.376
21.9,0.336
25.9,1.191
42.4,0.702
35.7,0.674
34.4,0.528
42.4,1.076
26.2,0.256
34.6,0.534
35.7,0.258
27.2,1.095
38.5,0.554
18.2,0.624
26.4,0.219
45.3,0.507
26,0.561
40.6,0.496
30.8,0.421
42.9,0.516
37,0.264
0,0.256
34.1,0.328
40.6,0.284
35,0.233
22.2,0.108
30.4,0.551
30,0.527
25.6,0.167
24.5,1.138
42.4,0.205
37.4,0.244
29.9,0.434
18.2,0.147
36.8,0.727
34.3,0.435
32.2,0.497
33.2,0.23
30.5,0.955
29.7,0.38
59.4,2.42
25.3,0.658
36.5,0.33
33.6,0.51
30.5,0.285
21.2,0.415
28.9,0.542
39.9,0.381
19.6,0.832
37.8,0.498
33.6,0.212
26.7,0.687
30.2,0.364
37.6,1.001
25.9,0.46
20.8,0.733
21.8,0.416
35.3,0.705
27.6,0.258
24,1.022
21.8,0.452
27.8,0.269
36.8,0.6
30,0.183
46.1,0.571
41.3,0.607
33.2,0.17
38.8,0.259
29.9,0.21
28.9,0.126
27.3,0.231
33.7,0.711
23.8,0.466
25.9,0.162
28,0.419
35.5,0.344
35.2,0.197
27.8,0.306
38.2,0.233
44.2,0.63
42.3,0.365
40.7,0.536
46.5,1.159
25.6,0.294
26.1,0.551
36.8,0.629
33.5,0.292
32.8,0.145
28.9,1.144
0,0.174
26.6,0.304
26,0.292
30.1,0.547
25.1,0.163
29.3,0.839
25.2,0.313
37.2,0.267
39,0.727
33.3,0.738
37.3,0.238
33.3,0.263
36.5,0.314
28.6,0.692
30.4,0.968
25,0.409
29.7,0.297
22.1,0.207
24.2,0.2
27.3,0.525
25.6,0.154
31.6,0.268
30.3,0.771
37.6,0.304
32.8,0.18
19.6,0.582
25,0.187
33.2,0.305
0,0.189
34.2,0.652
31.6,0.151
21.8,0.444
18.2,0.299
26.3,0.107
30.8,0.493
24.6,0.66
29.8,0.717
45.3,0.686
41.3,0.917
29.8,0.501
33.3,1.251
32.9,0.302
29.6,0.197
21.7,0.735
36.3,0.804
36.4,0.968
39.4,0.661
32.4,0.549
34.9,0.825
39.5,0.159
32,0.365
34.5,0.423
43.6,1.034
33.1,0.16
32.8,0.341
28.5,0.68
27.4,0.204
31.9,0.591
27.8,0.247
29.9,0.422
36.9,0.471
25.5,0.161
38.1,0.218
27.8,0.237
46.2,0.126
30.1,0.3
33.8,0.121
41.3,0.502
37.6,0.401
26.9,0.497
32.4,0.601
26.1,0.748
38.6,0.412
32,0.085
31.3,0.338
34.3,0.203
32.5,0.27
22.6,0.268
29.5,0.43
34.7,0.198
30.1,0.892
35.5,0.28
24,0.813
42.9,0.693
27,0.245
34.7,0.575
42.1,0.371
25,0.206
26.5,0.259
38.7,0.19
28.7,0.687
22.5,0.417
34.9,0.129
24.3,0.249
33.3,1.154
21.1,0.342
46.8,0.925
39.4,0.175
34.4,0.402
28.5,1.699
33.6,0.733
32,0.682
45.3,0.194
27.8,0.559
36.8,0.088
23.1,0.407
27.1,0.4
23.7,0.19
27.8,0.1
35.2,0.692
28.4,0.212
35.8,0.514
40,1.258
19.5,0.482
41.5,0.27
24,0.138
30.9,0.292
32.9,0.593
38.2,0.787
32.5,0.878
36.1,0.557
25.8,0.207
28.7,0.157
20.1,0.257
28.2,1.282
32.4,0.141
38.4,0.246
24.2,1.698
40.8,1.461
43.5,0.347
30.8,0.158
37.7,0.362
24.7,0.206
32.4,0.393
34.6,0.144
24.7,0.148
27.4,0.732
34.5,0.238
26.2,0.343
27.5,0.115
25.9,0.167
31.2,0.465
28.8,0.153
31.6,0.649
40.9,0.871
19.5,0.149
29.3,0.695
34.3,0.303
29.5,0.178
28,0.61
27.6,0.73
39.4,0.134
23.4,0.447
37.8,0.455
28.3,0.26
26.4,0.133
25.2,0.234
33.8,0.466
34.1,0.269
26.8,0.455
34.2,0.142
38.7,0.24
21.8,0.155
38.9,1.162
39,0.19
34.2,1.292
27.7,0.182
42.9,1.394
37.6,0.165
37.9,0.637
33.7,0.245
34.8,0.217
32.5,0.235
27.5,0.141
34,0.43
30.9,0.164
33.6,0.631
25.4,0.551
35.5,0.285
57.3,0.88
35.6,0.587
30.9,0.328
24.8,0.23
35.3,0.263
36,0.127
24.2,0.614
24.2,0.332
49.6,0.364
44.6,0.366
32.3,0.536
0,0.64
33.2,0.591
23.1,0.314
28.3,0.181
24.1,0.828
46.1,0.335
24.6,0.856
42.3,0.257
39.1,0.886
38.5,0.439
23.5,0.191
30.4,0.128
29.9,0.268
25,0.253
34.5,0.598
44.5,0.904
35.9,0.483
27.6,0.565
35,0.905
38.5,0.304
28.4,0.118
39.8,0.177
0,0.261
34.4,0.176
32.8,0.148
38,0.674
31.2,0.295
29.6,0.439
41.2,0.441
26.4,0.352
29.5,0.121
33.9,0.826
33.8,0.97
23.1,0.595
35.5,0.415
35.6,0.378
29.3,0.317
38.1,0.289
29.3,0.349
39.1,0.251
32.8,0.265
39.4,0.236
36.1,0.496
32.4,0.433
22.9,0.326
30.1,0.141
28.4,0.323
28.4,0.259
44.5,0.646
29,0.426
23.3,0.56
35.4,0.284
27.4,0.515
32,0.6
36.6,0.453
39.5,0.293
42.3,0.785
30.8,0.4
28.5,0.219
32.7,0.734
40.6,1.174
30,0.488
49.3,0.358
46.3,1.096
36.4,0.408
24.3,0.178
31.2,1.182
39,0.261
26,0.223
43.3,0.222
32.4,0.443
36.5,1.057
32,0.391
36.3,0.258
37.5,0.197
35.5,0.278
28.4,0.766
44,0.403
22.5,0.142
32.9,0.171
36.8,0.34
26.2,0.245
30.1,0.349
30.4,0.315
